{
  "listen_port": 8080,
  "max_block_age": "60s",
  "shutdown_timeout": "5s",
  "thorchain": {
    "last_chain_backoff": "7s",
    "fetch_batch_size": 100,
    "parallelism": 4,
    "read_timeout": "60s",
    "proxied_whitelisted_endpoints": [
      "inbound_addresses",
      "constants",
      "lastblock",
      "queue",
      "nodes",
      "liquidity_auction_tier/:pool/:address"
    ]
  },
  "timescale": {
    "user_name": "midgard",
    "password": "password",
    "database": "midgard",
    "sslmode": "disable",
    "commit_batch_size": 100,
    "max_open_conns": 100,
    "no_auto_update_ddl": true
  },
  "websockets": {
    "enable": false,
    "connection_limit": 100
  },
  "usdpools": [
    "ETH.USDT-0XDAC17F958D2EE523A2206206994597C13D831EC7",
    "ETH.USDC-0XA0B86991C6218B36C1D19D4A2E9EB0CE3606EB48"
  ]
}
